…
abundance_tree(non_missing)
#> # A tibble: 1 x 1
#>       n
#>   <int>
#> 1  2319
```

Calculate the abundance of trees by species.

``` r
by_sp <- group_by(non_missing, sp)
n_by_sp <- abundance_tree(by_sp)
n_by_sp
#> # A tibble: 70 x 2
#>    sp         n
#>    <chr>  <int>
#>  1 ALCFLO    11
#>  2 ALCLAT    15
#>  3 ANDINE     1
#>  4 ANTOBT     1
#>  5 ARDGLA     1
#>  6 BUCTET    11
#>  7 BYRSPI    25
#>  8 CALCAL     2
#>  9 CASARB   489
#> 10 CASSYL    58
#> # ... with 60 more rows
```
…
Note that `tt_test()` is recommended for sufficiently abundant species:

> You should only try to determine the habitat association for
> sufficiently abundant species - in a 50-ha plot, a minimum abundance
> of 50 trees/species has been used.

– `?tt_test()`

``` r
# Find sufficiently abundant species
by_sp <- group_by(tree, sp)
n_by_sp <- abundance_tree(by_sp)
n_by_sp
#> # A tibble: 73 x 2
#>    sp         n
#>    <chr>  <int>
#>  1 ALCFLO     3
#>  2 ALCLAT     1
#>  3 ANDINE     2
#>  4 ARDGLA     2
#>  5 ARTALT     1
#>  6 BRUPOR     1
#>  7 BUCTET     8
#>  8 BYRSPI    11
#>  9 CALCAL     1
#> 10 CASARB    94
#> # ... with 63 more rows
…
The output of `tt_test()` is a list. Large lists are awkward to view –
unless you use `View()` in RStudio.

``` r
View(tt)
```

Alternatively, transform the list to a dataframe.

``` r
tt_df <- to_df(tt)
# Nice view (try also `View()`)
as_tibble(tt_df)
#> # A tibble: 72 x 3
#>    metric         sp         value
#>    <chr>          <chr>      <dbl>
#>  1 N.Hab.1        CASARB    28    
#>  2 Gr.Hab.1       CASARB 25511    
#>  3 Ls.Hab.1       CASARB    86    
#>  4 Eq.Hab.1       CASARB     3    
#>  5 Rep.Agg.Neut.1 CASARB     1    
#>  6 Obs.Quantile.1 CASARB     0.997
#>  7 N.Hab.2        CASARB    12    
#>  8 Gr.Hab.2       CASARB  3691    
#>  9 Ls.Hab.2       CASARB 21892    
#> 10 Eq.Hab.2       CASARB    17    
#> # ... with 62 more rows
```
…
Also you can pull a dataframe containing the results of all the soil
variables.

``` r
krig_df <- to_df(krig_list, item = "df")
as_tibble(subset(krig_df,var == "c"))
#> # A tibble: 1,150 x 4
#>    var       x     y     z
#>  * <fct> <dbl> <dbl> <dbl>
#>  1 c        10    10  2.13
#>  2 c        30    10  2.12
#>  3 c        50    10  2.10
#>  4 c        70    10  2.09
#>  5 c        90    10  2.07
#>  6 c       110    10  2.06
#>  7 c       130    10  2.04
#>  8 c       150    10  2.03
#>  9 c       170    10  2.01
#> 10 c       190    10  2.00
#> # ... with 1,140 more rows

as_tibble(subset(krig_df, var == "p"))
#> # A tibble: 1,150 x 4
#>    var       x     y     z
#>  * <fct> <dbl> <dbl> <dbl>
#>  1 p        10    10  6.37
#>  2 p        30    10  6.35
#>  3 p        50    10  6.33
#>  4 p        70    10  6.31
#>  5 p        90    10  6.29
#>  6 p       110    10  6.27
#>  7 p       130    10  6.26
#>  8 p       150    10  6.24
#>  9 p       170    10  6.23
#> 10 p       190    10  6.21
#> # ... with 1,140 more rows
```
…
``` r
View(recruitment)
```

Alternatively use the `*_df()` variants of demography. They output a
dataframe that is easier to handle – it prints particularly well with
`as_tibble()`.

``` r
growth <- growth_df(census1, census2, split1 = census1$sp)
#> Warning in check_if_all_dbh_is_na(census1, census2, split = split1): At least one split-group contains all `dbh` values equal to NA.
#>   * Consider removing those groups before running this function.
as_tibble(growth)
#> # A tibble: 1,008 x 3
#>    split  metric      value
#>    <chr>  <chr>       <dbl>
#>  1 acaldi rate        0.709
#>  2 acaldi N           2    
#>  3 acaldi clim        1.32 
#>  4 acaldi dbhmean    11    
#>  5 acaldi time        4.95 
#>  6 acaldi date1   16670.   
#>  7 acaldi date2   18477    
#>  8 aegipa rate       NA    
#>  9 aegipa N           0    
#> 10 aegipa clim       NA    
#> # ... with 998 more rows
```
…
